Timestamp: 1611249080, Global Edits/Min: 1
Timestamp: 1611249080, Global Edits/Min: 2
Timestamp: 1611249081, Global Edits/Min: 3
Timestamp: 1611249080, Global Edits/Min: 4
Timestamp: 1611249078, Global Edits/Min: 5
Timestamp: 1611249082, Global Edits/Min: 6
Timestamp: 1611249075, Global Edits/Min: 7
Timestamp: 1611249080, Global Edits/Min: 8
Timestamp: 1611249078, Global Edits/Min: 9
Timestamp: 1611249081, Global Edits/Min: 10
Timestamp: 1611249079, Global Edits/Min: 11
Timestamp: 1611249077, Global Edits/Min: 12
Timestamp: 1611249082, Global Edits/Min: 13
Timestamp: 1611249080, Global Edits/Min: 14
Timestamp: 1611249081, Global Edits/Min: 15
Timestamp: 1611249082, Global Edits/Min: 16
Timestamp: 1611249081, Global Edits/Min: 17
Timestamp: 1611249080, Global Edits/Min: 18
Timestamp: 1611249081, Global Edits/Min: 19
Timestamp: 1611249081, Global Edits/Min: 20
Timestamp: 1611249081, Global Edits/Min: 21
Timestamp: 1611249082, Global Edits/Min: 22
Timestamp: 1611249081, Global Edits/Min: 23
Timestamp: 1611249083, Global Edits/Min: 24
Timestamp: 1611249082, Global Edits/Min: 25
Timestamp: 1611249075, Global Edits/Min: 26
Timestamp: 1611249082, Global Edits/Min: 27
Timestamp: 1611249081, Global Edits/Min: 28
Timestamp: 1611249082, Global Edits/Min: 29
Timestamp: 1611249082, Global Edits/Min: 30
Timestamp: 1611249080, Global Edits/Min: 1
Timestamp: 1611249081, Global Edits/Min: 2
Timestamp: 1611249080, Global Edits/Min: 3
Timestamp: 1611249078, Global Edits/Min: 4
Timestamp: 1611249082, Global Edits/Min: 5
Timestamp: 1611249075, Global Edits/Min: 6
Timestamp: 1611249080, Global Edits/Min: 7
Timestamp: 1611249078, Global Edits/Min: 8
Timestamp: 1611249081, Global Edits/Min: 9
Timestamp: 1611249079, Global Edits/Min: 10
Timestamp: 1611249077, Global Edits/Min: 11
Timestamp: 1611249082, Global Edits/Min: 12
Timestamp: 1611249080, Global Edits/Min: 13
Timestamp: 1611249081, Global Edits/Min: 14
Timestamp: 1611249082, Global Edits/Min: 15
Timestamp: 1611249081, Global Edits/Min: 16
Timestamp: 1611249080, Global Edits/Min: 17
Timestamp: 1611249081, Global Edits/Min: 18
Timestamp: 1611249081, Global Edits/Min: 19
Timestamp: 1611249081, Global Edits/Min: 20
Timestamp: 1611249082, Global Edits/Min: 21
Timestamp: 1611249081, Global Edits/Min: 22
Timestamp: 1611249083, Global Edits/Min: 23
Timestamp: 1611249082, Global Edits/Min: 24
Timestamp: 1611249075, Global Edits/Min: 25
Timestamp: 1611249082, Global Edits/Min: 26
Timestamp: 1611249081, Global Edits/Min: 27
Timestamp: 1611249082, Global Edits/Min: 28
Timestamp: 1611249082, Global Edits/Min: 29
Timestamp: 1611249083, Global Edits/Min: 30
Timestamp: 1611249081, Global Edits/Min: 31
Timestamp: 1611249079, Global Edits/Min: 32
Timestamp: 1611249079, Global Edits/Min: 33
Timestamp: 1611249082, Global Edits/Min: 34
Timestamp: 1611249083, Global Edits/Min: 35
Timestamp: 1611249080, Global Edits/Min: 36
Timestamp: 1611249083, Global Edits/Min: 37
Timestamp: 1611249082, Global Edits/Min: 38
Timestamp: 1611249082, Global Edits/Min: 39
Timestamp: 1611249083, Global Edits/Min: 40
Timestamp: 1611249080, Global Edits/Min: 41
Timestamp: 1611249083, Global Edits/Min: 42
Timestamp: 456, Global Edits/Min: 1
Timestamp: 1611249081, Global Edits/Min: 1
Timestamp: 1611249082, Global Edits/Min: 2
Timestamp: 1611249081, Global Edits/Min: 3
Timestamp: 1611249083, Global Edits/Min: 4
Timestamp: 1611249082, Global Edits/Min: 5
Timestamp: 1611249075, Global Edits/Min: 6
Timestamp: 1611249082, Global Edits/Min: 7
Timestamp: 1611249081, Global Edits/Min: 8
Timestamp: 1611249082, Global Edits/Min: 9
Timestamp: 1611249082, Global Edits/Min: 10
Timestamp: 1611249083, Global Edits/Min: 11
Timestamp: 1611249081, Global Edits/Min: 12
Timestamp: 1611249079, Global Edits/Min: 13
Timestamp: 1611249079, Global Edits/Min: 14
Timestamp: 1611249082, Global Edits/Min: 15
Timestamp: 1611249083, Global Edits/Min: 16
Timestamp: 1611249080, Global Edits/Min: 17
Timestamp: 1611249083, Global Edits/Min: 18
Timestamp: 1611249082, Global Edits/Min: 19
Timestamp: 1611249082, Global Edits/Min: 20
Timestamp: 1611249083, Global Edits/Min: 21
Timestamp: 1611249080, Global Edits/Min: 22
Timestamp: 1611249083, Global Edits/Min: 23
Timestamp: 1611249079, Global Edits/Min: 24
Timestamp: 1611249082, Global Edits/Min: 25
Timestamp: 1611249081, Global Edits/Min: 26
Timestamp: 1611249080, Global Edits/Min: 27
Timestamp: 1611249082, Global Edits/Min: 28
Timestamp: 1611249084, Global Edits/Min: 29
Timestamp: 1611249079, Global Edits/Min: 30
Timestamp: 1611249084, Global Edits/Min: 31
Timestamp: 1611249082, Global Edits/Min: 32
Timestamp: 1611249084, Global Edits/Min: 33
Timestamp: 1611249085, Global Edits/Min: 34
Timestamp: 1611249081, Global Edits/Min: 35
Timestamp: 1611249081, Global Edits/Min: 36
Timestamp: 1611249080, Global Edits/Min: 37
Timestamp: 1611249083, Global Edits/Min: 38
Timestamp: 1611249083, Global Edits/Min: 39
Timestamp: 1611249085, Global Edits/Min: 40
Timestamp: 1611249085, Global Edits/Min: 41
Timestamp: 1611249083, Global Edits/Min: 42
Timestamp: 1611249078, Global Edits/Min: 43
Timestamp: 1611249085, Global Edits/Min: 44
Timestamp: 1611249085, Global Edits/Min: 45
Timestamp: 1611249084, Global Edits/Min: 46
Timestamp: 1611249083, Global Edits/Min: 47
Timestamp: 1611249082, Global Edits/Min: 48
Timestamp: 1611249084, Global Edits/Min: 49
Timestamp: 1611249086, Global Edits/Min: 50
Timestamp: 1611249084, Global Edits/Min: 51
Timestamp: 1611249082, Global Edits/Min: 52
Timestamp: 1611249084, Global Edits/Min: 53
Timestamp: 1611249083, Global Edits/Min: 54
Timestamp: 1611249085, Global Edits/Min: 55
Timestamp: 1611249081, Global Edits/Min: 56
Timestamp: 1611249082, Global Edits/Min: 57
Timestamp: 1611249083, Global Edits/Min: 58
Timestamp: 1611249084, Global Edits/Min: 59
Timestamp: 1611249084, Global Edits/Min: 60
Timestamp: 1611249086, Global Edits/Min: 61
Timestamp: 1611249083, Global Edits/Min: 62
Timestamp: 1611249085, Global Edits/Min: 63
Timestamp: 1611249081, Global Edits/Min: 64
Timestamp: 1611249086, Global Edits/Min: 65
Timestamp: 1611249084, Global Edits/Min: 66
Timestamp: 1611249085, Global Edits/Min: 67
Timestamp: 1611249086, Global Edits/Min: 68
Timestamp: 1611249084, Global Edits/Min: 69
Timestamp: 1611249079, Global Edits/Min: 70
Timestamp: 1611249085, Global Edits/Min: 71
Timestamp: 1611249084, Global Edits/Min: 72
Timestamp: 1611249082, Global Edits/Min: 73
Timestamp: 1611249087, Global Edits/Min: 74
Timestamp: 1611249083, Global Edits/Min: 75
Timestamp: 1611249086, Global Edits/Min: 76
Timestamp: 1611249087, Global Edits/Min: 77
Timestamp: 1611249086, Global Edits/Min: 78
Timestamp: 1611249085, Global Edits/Min: 79
Timestamp: 1611249085, Global Edits/Min: 80
Timestamp: 1611249084, Global Edits/Min: 81
Timestamp: 1611249086, Global Edits/Min: 82
Timestamp: 1611249084, Global Edits/Min: 83
Timestamp: 1611249084, Global Edits/Min: 84
Timestamp: 1611249084, Global Edits/Min: 85
Timestamp: 1611249087, Global Edits/Min: 86
Timestamp: 1611249087, Global Edits/Min: 87
Timestamp: 1611249084, Global Edits/Min: 88
Timestamp: 1611249087, Global Edits/Min: 89
Timestamp: 1611249086, Global Edits/Min: 90
Timestamp: 1611249085, Global Edits/Min: 91
Timestamp: 1611249082, Global Edits/Min: 92
Timestamp: 1611249085, Global Edits/Min: 93
Timestamp: 1611249087, Global Edits/Min: 94
Timestamp: 1611249087, Global Edits/Min: 95
Timestamp: 1611249085, Global Edits/Min: 96
Timestamp: 1611249087, Global Edits/Min: 97
Timestamp: 1611249085, Global Edits/Min: 98
Timestamp: 1611249086, Global Edits/Min: 99
Timestamp: 1611249084, Global Edits/Min: 100
Timestamp: 1611249088, Global Edits/Min: 101
Timestamp: 1611249089, Global Edits/Min: 102
Timestamp: 1611249088, Global Edits/Min: 103
Timestamp: 1611249089, Global Edits/Min: 104
Timestamp: 1611249086, Global Edits/Min: 105
Timestamp: 1611249086, Global Edits/Min: 106
Timestamp: 1611249089, Global Edits/Min: 107
Timestamp: 1611249087, Global Edits/Min: 108
Timestamp: 1611249085, Global Edits/Min: 109
Timestamp: 1611249088, Global Edits/Min: 110
Timestamp: 1611249086, Global Edits/Min: 111
Timestamp: 1611249086, Global Edits/Min: 112
Timestamp: 1611249087, Global Edits/Min: 113
Timestamp: 1611249087, Global Edits/Min: 114
Timestamp: 1611249085, Global Edits/Min: 115
Timestamp: 1611249087, Global Edits/Min: 116
Timestamp: 1611249088, Global Edits/Min: 117
Timestamp: 1611249087, Global Edits/Min: 118
Timestamp: 1611249085, Global Edits/Min: 119
Timestamp: 1611249086, Global Edits/Min: 120
Timestamp: 1611249088, Global Edits/Min: 121
Timestamp: 1611249085, Global Edits/Min: 122
Timestamp: 1611249086, Global Edits/Min: 123
Timestamp: 1611249085, Global Edits/Min: 124
Timestamp: 1611249089, Global Edits/Min: 125
Timestamp: 1611249087, Global Edits/Min: 126
Timestamp: 1611249089, Global Edits/Min: 127
Timestamp: 1611249088, Global Edits/Min: 128
Timestamp: 1611249090, Global Edits/Min: 129
Timestamp: 1611249089, Global Edits/Min: 130
Timestamp: 1611249087, Global Edits/Min: 131
Timestamp: 1611249089, Global Edits/Min: 132
Timestamp: 1611249089, Global Edits/Min: 133
Timestamp: 1611249084, Global Edits/Min: 134
Timestamp: 1611249090, Global Edits/Min: 135
Timestamp: 1611249083, Global Edits/Min: 136
Timestamp: 1611249090, Global Edits/Min: 137
Timestamp: 1611249088, Global Edits/Min: 138
Timestamp: 1611249089, Global Edits/Min: 139
Timestamp: 1611249087, Global Edits/Min: 140
Timestamp: 1611249087, Global Edits/Min: 141
Timestamp: 1611249090, Global Edits/Min: 142
Timestamp: 1611249090, Global Edits/Min: 143
Timestamp: 1611249088, Global Edits/Min: 144
Timestamp: 1611249091, Global Edits/Min: 145
Timestamp: 1611249090, Global Edits/Min: 146
Timestamp: 1611249087, Global Edits/Min: 147
Timestamp: 1611249090, Global Edits/Min: 148
Timestamp: 1611249088, Global Edits/Min: 149
Timestamp: 1611249091, Global Edits/Min: 150
Timestamp: 1611249090, Global Edits/Min: 151
Timestamp: 1611249091, Global Edits/Min: 152
Timestamp: 1611249087, Global Edits/Min: 153
Timestamp: 1611249088, Global Edits/Min: 154
Timestamp: 1611249090, Global Edits/Min: 155
Timestamp: 1611249090, Global Edits/Min: 156
Timestamp: 1611249086, Global Edits/Min: 157
Timestamp: 1611249088, Global Edits/Min: 158
Timestamp: 1611249089, Global Edits/Min: 159
Timestamp: 1611249090, Global Edits/Min: 160
Timestamp: 1611249091, Global Edits/Min: 161
Timestamp: 1611249091, Global Edits/Min: 162
Timestamp: 1611249087, Global Edits/Min: 163
Timestamp: 1611249090, Global Edits/Min: 164
Timestamp: 1611249090, Global Edits/Min: 165
Timestamp: 1611249087, Global Edits/Min: 166
Timestamp: 1611249091, Global Edits/Min: 167
Timestamp: 1611249091, Global Edits/Min: 168
Timestamp: 1611249089, Global Edits/Min: 169
Timestamp: 1611249091, Global Edits/Min: 170
Timestamp: 1611249092, Global Edits/Min: 171
Timestamp: 1611249093, Global Edits/Min: 172
Timestamp: 1611249089, Global Edits/Min: 173
Timestamp: 1611249088, Global Edits/Min: 174
Timestamp: 1611249087, Global Edits/Min: 175
Timestamp: 1611249093, Global Edits/Min: 176
Timestamp: 1611249093, Global Edits/Min: 177
Timestamp: 1611249092, Global Edits/Min: 178
Timestamp: 1611249092, Global Edits/Min: 179
Timestamp: 1611249092, Global Edits/Min: 180
Timestamp: 1611249090, Global Edits/Min: 181
Timestamp: 1611249093, Global Edits/Min: 182
Timestamp: 1611249086, Global Edits/Min: 183
Timestamp: 1611249093, Global Edits/Min: 184
Timestamp: 1611249089, Global Edits/Min: 185
Timestamp: 1611249092, Global Edits/Min: 186
Timestamp: 1611249089, Global Edits/Min: 187
Timestamp: 1611249089, Global Edits/Min: 188
Timestamp: 1611249089, Global Edits/Min: 189
Timestamp: 1611249094, Global Edits/Min: 190
Timestamp: 1611249093, Global Edits/Min: 191
Timestamp: 1611249094, Global Edits/Min: 192
Timestamp: 1611249094, Global Edits/Min: 193
Timestamp: 1611249093, Global Edits/Min: 194
Timestamp: 1611249093, Global Edits/Min: 195
Timestamp: 1611249093, Global Edits/Min: 196
Timestamp: 1611249090, Global Edits/Min: 197
Timestamp: 1611249094, Global Edits/Min: 198
Timestamp: 1611249091, Global Edits/Min: 199
Timestamp: 1611249092, Global Edits/Min: 200
Timestamp: 1611249094, Global Edits/Min: 201
Timestamp: 1611249094, Global Edits/Min: 202
Timestamp: 1611249093, Global Edits/Min: 203
Timestamp: 1611249094, Global Edits/Min: 204
Timestamp: 1611249093, Global Edits/Min: 205
Timestamp: 1611249090, Global Edits/Min: 206
Timestamp: 1611249091, Global Edits/Min: 207
Timestamp: 1611249093, Global Edits/Min: 208
Timestamp: 1611249093, Global Edits/Min: 209
Timestamp: 1611249092, Global Edits/Min: 210
Timestamp: 1611249094, Global Edits/Min: 211
Timestamp: 1611249092, Global Edits/Min: 212
Timestamp: 1611249092, Global Edits/Min: 213
Timestamp: 1611249094, Global Edits/Min: 214
Timestamp: 1611249094, Global Edits/Min: 215
Timestamp: 1611249093, Global Edits/Min: 216
Timestamp: 1611249092, Global Edits/Min: 217
Timestamp: 1611249095, Global Edits/Min: 218
Timestamp: 1611249090, Global Edits/Min: 219
Timestamp: 1611249094, Global Edits/Min: 220
Timestamp: 1611249091, Global Edits/Min: 221
Timestamp: 1611249089, Global Edits/Min: 222
Timestamp: 1611249095, Global Edits/Min: 223
Timestamp: 1611249093, Global Edits/Min: 224
Timestamp: 1611249094, Global Edits/Min: 225
Timestamp: 1611249096, Global Edits/Min: 226
Timestamp: 1611249093, Global Edits/Min: 227
Timestamp: 1611249093, Global Edits/Min: 228
Timestamp: 1611249091, Global Edits/Min: 229
Timestamp: 1611249096, Global Edits/Min: 230
Timestamp: 1611249095, Global Edits/Min: 231
Timestamp: 1611249095, Global Edits/Min: 232
Timestamp: 1611249095, Global Edits/Min: 233
Timestamp: 1611249095, Global Edits/Min: 234
Timestamp: 1611249096, Global Edits/Min: 235
Timestamp: 1611249094, Global Edits/Min: 236
Timestamp: 1611249096, Global Edits/Min: 237
Timestamp: 1611249094, Global Edits/Min: 238
Timestamp: 1611249095, Global Edits/Min: 239
Timestamp: 1611249095, Global Edits/Min: 240
Timestamp: 1611249094, Global Edits/Min: 241
Timestamp: 1611249096, Global Edits/Min: 242
Timestamp: 1611249095, Global Edits/Min: 243
Timestamp: 1611249095, Global Edits/Min: 244
Timestamp: 1611249096, Global Edits/Min: 245
Timestamp: 1611249097, Global Edits/Min: 246
Timestamp: 1611249096, Global Edits/Min: 247
Timestamp: 1611249096, Global Edits/Min: 248
Timestamp: 1611249096, Global Edits/Min: 249
Timestamp: 1611249096, Global Edits/Min: 250
Timestamp: 1611249096, Global Edits/Min: 251
Timestamp: 1611249094, Global Edits/Min: 252
Timestamp: 1611249095, Global Edits/Min: 253
Timestamp: 1611249095, Global Edits/Min: 254
Timestamp: 1611249094, Global Edits/Min: 255
Timestamp: 1611249097, Global Edits/Min: 256
Timestamp: 1611249097, Global Edits/Min: 257
Timestamp: 1611249091, Global Edits/Min: 258
Timestamp: 1611249098, Global Edits/Min: 259
Timestamp: 1611249097, Global Edits/Min: 260
Timestamp: 1611249094, Global Edits/Min: 261
Timestamp: 1611249094, Global Edits/Min: 262
Timestamp: 1611249094, Global Edits/Min: 263
Timestamp: 1611249098, Global Edits/Min: 264
Timestamp: 1611249097, Global Edits/Min: 265
Timestamp: 1611249093, Global Edits/Min: 266
Timestamp: 1611249093, Global Edits/Min: 267
Timestamp: 1611249093, Global Edits/Min: 268
Timestamp: 1611249096, Global Edits/Min: 269
Timestamp: 1611249097, Global Edits/Min: 270
Timestamp: 1611249098, Global Edits/Min: 271
Timestamp: 1611249095, Global Edits/Min: 272
Timestamp: 1611249094, Global Edits/Min: 273
Timestamp: 1611249095, Global Edits/Min: 274
Timestamp: 1611249096, Global Edits/Min: 275
Timestamp: 1611249096, Global Edits/Min: 276
Timestamp: 1611249098, Global Edits/Min: 277
Timestamp: 1611249092, Global Edits/Min: 278
Timestamp: 1611249099, Global Edits/Min: 279
Timestamp: 1611249097, Global Edits/Min: 280
Timestamp: 1611249098, Global Edits/Min: 281
Timestamp: 1611249096, Global Edits/Min: 282
Timestamp: 1611249096, Global Edits/Min: 283
Timestamp: 1611249098, Global Edits/Min: 284
Timestamp: 1611249099, Global Edits/Min: 285
Timestamp: 1611249097, Global Edits/Min: 286
Timestamp: 1611249100, Global Edits/Min: 287
Timestamp: 1611249098, Global Edits/Min: 288
Timestamp: 1611249097, Global Edits/Min: 289
Timestamp: 1611249098, Global Edits/Min: 290
Timestamp: 1611249095, Global Edits/Min: 291
Timestamp: 1611249097, Global Edits/Min: 292
Timestamp: 1611249099, Global Edits/Min: 293
Timestamp: 1611249092, Global Edits/Min: 294
Timestamp: 1611249099, Global Edits/Min: 295
Timestamp: 1611249099, Global Edits/Min: 296
Timestamp: 1611249096, Global Edits/Min: 297
Timestamp: 1611249097, Global Edits/Min: 298
Timestamp: 1611249096, Global Edits/Min: 299
Timestamp: 1611249098, Global Edits/Min: 300
Timestamp: 1611249099, Global Edits/Min: 301
Timestamp: 1611249097, Global Edits/Min: 302
Timestamp: 1611249099, Global Edits/Min: 303
Timestamp: 1611249098, Global Edits/Min: 304
Timestamp: 1611249098, Global Edits/Min: 305
Timestamp: 1611249098, Global Edits/Min: 306
Timestamp: 1611249100, Global Edits/Min: 307
Timestamp: 1611249098, Global Edits/Min: 308
Timestamp: 1611249098, Global Edits/Min: 309
Timestamp: 1611249100, Global Edits/Min: 310
Timestamp: 1611249099, Global Edits/Min: 311
Timestamp: 1611249092, Global Edits/Min: 312
Timestamp: 1611249099, Global Edits/Min: 313
Timestamp: 1611249098, Global Edits/Min: 314
Timestamp: 1611249099, Global Edits/Min: 315
Timestamp: 1611249098, Global Edits/Min: 316
Timestamp: 1611249101, Global Edits/Min: 317
Timestamp: 1611249101, Global Edits/Min: 318
Timestamp: 1611249101, Global Edits/Min: 319
Timestamp: 1611249101, Global Edits/Min: 320
Timestamp: 1611249101, Global Edits/Min: 321
Timestamp: 1611249100, Global Edits/Min: 322
Timestamp: 1611249100, Global Edits/Min: 323
Timestamp: 1611249101, Global Edits/Min: 324
Timestamp: 1611249096, Global Edits/Min: 325
Timestamp: 1611249099, Global Edits/Min: 326
Timestamp: 1611249096, Global Edits/Min: 327
Timestamp: 1611249099, Global Edits/Min: 328
Timestamp: 1611249089, Global Edits/Min: 329
Timestamp: 1611249099, Global Edits/Min: 330
Timestamp: 1611249100, Global Edits/Min: 331
Timestamp: 1611249098, Global Edits/Min: 332
Timestamp: 1611249100, Global Edits/Min: 333
Timestamp: 1611249098, Global Edits/Min: 334
Timestamp: 1611249098, Global Edits/Min: 335
Timestamp: 1611249102, Global Edits/Min: 336
Timestamp: 1611249101, Global Edits/Min: 337
Timestamp: 1611249099, Global Edits/Min: 338
Timestamp: 1611249098, Global Edits/Min: 339
Timestamp: 1611249098, Global Edits/Min: 340
Timestamp: 1611249098, Global Edits/Min: 341
Timestamp: 1611249098, Global Edits/Min: 342
Timestamp: 1611249096, Global Edits/Min: 343
Timestamp: 1611249097, Global Edits/Min: 344
Timestamp: 1611249098, Global Edits/Min: 345
Timestamp: 1611249102, Global Edits/Min: 346
Timestamp: 1611249103, Global Edits/Min: 347
Timestamp: 1611249102, Global Edits/Min: 348
Timestamp: 1611249102, Global Edits/Min: 349
Timestamp: 1611249100, Global Edits/Min: 350
Timestamp: 1611249102, Global Edits/Min: 351
Timestamp: 1611249102, Global Edits/Min: 352
Timestamp: 1611249102, Global Edits/Min: 353
Timestamp: 1611249100, Global Edits/Min: 354
Timestamp: 1611249102, Global Edits/Min: 355
Timestamp: 1611249103, Global Edits/Min: 356
Timestamp: 1611249100, Global Edits/Min: 357
Timestamp: 1611249103, Global Edits/Min: 358
Timestamp: 1611249102, Global Edits/Min: 359
Timestamp: 1611249104, Global Edits/Min: 360
Timestamp: 1611249101, Global Edits/Min: 361
Timestamp: 1611249104, Global Edits/Min: 362
Timestamp: 1611249103, Global Edits/Min: 363
Timestamp: 1611249104, Global Edits/Min: 364
Timestamp: 1611249098, Global Edits/Min: 365
Timestamp: 1611249102, Global Edits/Min: 366
Timestamp: 1611249102, Global Edits/Min: 367
Timestamp: 1611249101, Global Edits/Min: 368
Timestamp: 1611249102, Global Edits/Min: 369
Timestamp: 1611249103, Global Edits/Min: 370
Timestamp: 1611249105, Global Edits/Min: 371
Timestamp: 1611249104, Global Edits/Min: 372
Timestamp: 1611249101, Global Edits/Min: 373
Timestamp: 1611249103, Global Edits/Min: 374
Timestamp: 1611249105, Global Edits/Min: 375
Timestamp: 1611249103, Global Edits/Min: 376
Timestamp: 1611249104, Global Edits/Min: 377
Timestamp: 1611249103, Global Edits/Min: 378
Timestamp: 1611249103, Global Edits/Min: 379
Timestamp: 1611249102, Global Edits/Min: 380
Timestamp: 1611249105, Global Edits/Min: 381
Timestamp: 1611249105, Global Edits/Min: 382
Timestamp: 1611249099, Global Edits/Min: 383
Timestamp: 1611249102, Global Edits/Min: 384
Timestamp: 1611249098, Global Edits/Min: 385
Timestamp: 1611249101, Global Edits/Min: 386
Timestamp: 1611249103, Global Edits/Min: 387
Timestamp: 1611249101, Global Edits/Min: 388
Timestamp: 1611249098, Global Edits/Min: 389
Timestamp: 1611249097, Global Edits/Min: 390
Timestamp: 1611249099, Global Edits/Min: 391
Timestamp: 1611249099, Global Edits/Min: 392
Timestamp: 1611249104, Global Edits/Min: 393
Timestamp: 1611249103, Global Edits/Min: 394
Timestamp: 1611249098, Global Edits/Min: 395
Timestamp: 1611249106, Global Edits/Min: 396
Timestamp: 1611249105, Global Edits/Min: 397
Timestamp: 1611249105, Global Edits/Min: 398
Timestamp: 1611249102, Global Edits/Min: 399
Timestamp: 1611249105, Global Edits/Min: 400
Timestamp: 1611249104, Global Edits/Min: 401
Timestamp: 1611249105, Global Edits/Min: 402
Timestamp: 1611249103, Global Edits/Min: 403
Timestamp: 1611249105, Global Edits/Min: 404
Timestamp: 1611249102, Global Edits/Min: 405
Timestamp: 1611249104, Global Edits/Min: 406
Timestamp: 1611249105, Global Edits/Min: 407
Timestamp: 1611249104, Global Edits/Min: 408
Timestamp: 1611249106, Global Edits/Min: 409
Timestamp: 1611249101, Global Edits/Min: 410
Timestamp: 1611249103, Global Edits/Min: 411
Timestamp: 1611249105, Global Edits/Min: 412
Timestamp: 1611249106, Global Edits/Min: 413
Timestamp: 1611249104, Global Edits/Min: 414
Timestamp: 1611249106, Global Edits/Min: 415
Timestamp: 1611249105, Global Edits/Min: 416
Timestamp: 1611249103, Global Edits/Min: 417
Timestamp: 1611249102, Global Edits/Min: 418
Timestamp: 1611249104, Global Edits/Min: 419
Timestamp: 1611249105, Global Edits/Min: 420
Timestamp: 1611249105, Global Edits/Min: 421
Timestamp: 1611249101, Global Edits/Min: 422
Timestamp: 1611249106, Global Edits/Min: 423
Timestamp: 1611249101, Global Edits/Min: 424
Timestamp: 1611249106, Global Edits/Min: 425
Timestamp: 1611249105, Global Edits/Min: 426
Timestamp: 1611249106, Global Edits/Min: 427
Timestamp: 1611249105, Global Edits/Min: 428
Timestamp: 1611249102, Global Edits/Min: 429
Timestamp: 1611249104, Global Edits/Min: 430
Timestamp: 1611249107, Global Edits/Min: 431
Timestamp: 1611249105, Global Edits/Min: 432
Timestamp: 1611249104, Global Edits/Min: 433
Timestamp: 1611249100, Global Edits/Min: 434
Timestamp: 1611249107, Global Edits/Min: 435
Timestamp: 1611249107, Global Edits/Min: 436
Timestamp: 1611249103, Global Edits/Min: 437
Timestamp: 1611249100, Global Edits/Min: 438
Timestamp: 1611249108, Global Edits/Min: 439
Timestamp: 1611249108, Global Edits/Min: 440
Timestamp: 1611249108, Global Edits/Min: 441
Timestamp: 1611249102, Global Edits/Min: 442
Timestamp: 1611249097, Global Edits/Min: 443
Timestamp: 1611249102, Global Edits/Min: 444
Timestamp: 1611249108, Global Edits/Min: 445
Timestamp: 1611249106, Global Edits/Min: 446
Timestamp: 1611249105, Global Edits/Min: 447
Timestamp: 1611249102, Global Edits/Min: 448
Timestamp: 1611249100, Global Edits/Min: 449
Timestamp: 1611249100, Global Edits/Min: 450
Timestamp: 1611249100, Global Edits/Min: 451
Timestamp: 1611249094, Global Edits/Min: 452
Timestamp: 1611249101, Global Edits/Min: 453
Timestamp: 1611249103, Global Edits/Min: 454
Timestamp: 1611249102, Global Edits/Min: 455
Timestamp: 1611249100, Global Edits/Min: 456
Timestamp: 1611249102, Global Edits/Min: 457
Timestamp: 1611249107, Global Edits/Min: 458
Timestamp: 1611249103, Global Edits/Min: 459
Timestamp: 1611249109, Global Edits/Min: 460
Timestamp: 1611249107, Global Edits/Min: 461
Timestamp: 1611249105, Global Edits/Min: 462
Timestamp: 1611249107, Global Edits/Min: 463
Timestamp: 1611249107, Global Edits/Min: 464
Timestamp: 1611249107, Global Edits/Min: 465
Timestamp: 1611249106, Global Edits/Min: 466
Timestamp: 1611249111, Global Edits/Min: 467
Timestamp: 1611249105, Global Edits/Min: 468
Timestamp: 1611249104, Global Edits/Min: 469
Timestamp: 1611249107, Global Edits/Min: 470
Timestamp: 1611249109, Global Edits/Min: 471
Timestamp: 1611249107, Global Edits/Min: 472
Timestamp: 1611249108, Global Edits/Min: 473
Timestamp: 1611249108, Global Edits/Min: 474
Timestamp: 1611249104, Global Edits/Min: 475
Timestamp: 1611249109, Global Edits/Min: 476
Timestamp: 1611249108, Global Edits/Min: 477
Timestamp: 1611249108, Global Edits/Min: 478
Timestamp: 1611249111, Global Edits/Min: 479
Timestamp: 1611249101, Global Edits/Min: 480
Timestamp: 1611249107, Global Edits/Min: 481
Timestamp: 1611249105, Global Edits/Min: 482
Timestamp: 1611249104, Global Edits/Min: 483
Timestamp: 1611249107, Global Edits/Min: 484
Timestamp: 1611249107, Global Edits/Min: 485
Timestamp: 1611249106, Global Edits/Min: 486
Timestamp: 1611249107, Global Edits/Min: 487
Timestamp: 1611249111, Global Edits/Min: 488
Timestamp: 1611249111, Global Edits/Min: 489
Timestamp: 1611249105, Global Edits/Min: 490
Timestamp: 1611249110, Global Edits/Min: 491
Timestamp: 1611249104, Global Edits/Min: 492
Timestamp: 1611249108, Global Edits/Min: 493
Timestamp: 1611249111, Global Edits/Min: 494
Timestamp: 1611249109, Global Edits/Min: 495
Timestamp: 1611249108, Global Edits/Min: 496
Timestamp: 1611249103, Global Edits/Min: 497
Timestamp: 1611249109, Global Edits/Min: 498
Timestamp: 1611249110, Global Edits/Min: 499
Timestamp: 1611249111, Global Edits/Min: 500
Timestamp: 1611249110, Global Edits/Min: 501
Timestamp: 1611249110, Global Edits/Min: 502
Timestamp: 1611249110, Global Edits/Min: 503
Timestamp: 1611249107, Global Edits/Min: 504
Timestamp: 1611249104, Global Edits/Min: 505
Timestamp: 1611249112, Global Edits/Min: 506
Timestamp: 1611249110, Global Edits/Min: 507
Timestamp: 1611249111, Global Edits/Min: 508
Timestamp: 1611249108, Global Edits/Min: 509
Timestamp: 1611249108, Global Edits/Min: 510
Timestamp: 1611249110, Global Edits/Min: 511
Timestamp: 1611249110, Global Edits/Min: 512
Timestamp: 1611249111, Global Edits/Min: 513
Timestamp: 1611249109, Global Edits/Min: 514
Timestamp: 1611249108, Global Edits/Min: 515
Timestamp: 1611249109, Global Edits/Min: 516
Timestamp: 1611249112, Global Edits/Min: 517
Timestamp: 1611249109, Global Edits/Min: 518
Timestamp: 1611249107, Global Edits/Min: 519
Timestamp: 1611249109, Global Edits/Min: 520
Timestamp: 1611249109, Global Edits/Min: 521
Timestamp: 1611249108, Global Edits/Min: 522
Timestamp: 1611249107, Global Edits/Min: 523
Timestamp: 1611249111, Global Edits/Min: 524
Timestamp: 1611249110, Global Edits/Min: 525
Timestamp: 1611249110, Global Edits/Min: 526
Timestamp: 1611249109, Global Edits/Min: 527
Timestamp: 1611249108, Global Edits/Min: 528
Timestamp: 1611249111, Global Edits/Min: 529
Timestamp: 1611249109, Global Edits/Min: 530
Timestamp: 1611249112, Global Edits/Min: 531
Timestamp: 1611249112, Global Edits/Min: 532
Timestamp: 1611249110, Global Edits/Min: 533
Timestamp: 1611249109, Global Edits/Min: 534
Timestamp: 1611249112, Global Edits/Min: 535
Timestamp: 1611249110, Global Edits/Min: 536
Timestamp: 1611249111, Global Edits/Min: 537
Timestamp: 1611249112, Global Edits/Min: 538
Timestamp: 1611249111, Global Edits/Min: 539
Timestamp: 1611249112, Global Edits/Min: 540
Timestamp: 1611249110, Global Edits/Min: 541
Timestamp: 1611249113, Global Edits/Min: 542
Timestamp: 1611249112, Global Edits/Min: 543
Timestamp: 1611249108, Global Edits/Min: 544
Timestamp: 1611249114, Global Edits/Min: 545
Timestamp: 1611249113, Global Edits/Min: 546
Timestamp: 1611249110, Global Edits/Min: 547
Timestamp: 1611249108, Global Edits/Min: 548
Timestamp: 1611249111, Global Edits/Min: 549
Timestamp: 1611249114, Global Edits/Min: 550
Timestamp: 1611249105, Global Edits/Min: 551
Timestamp: 1611249113, Global Edits/Min: 552
Timestamp: 1611249114, Global Edits/Min: 553
Timestamp: 1611249103, Global Edits/Min: 554
Timestamp: 1611249110, Global Edits/Min: 555
Timestamp: 1611249113, Global Edits/Min: 556
Timestamp: 1611249113, Global Edits/Min: 557
Timestamp: 1611249115, Global Edits/Min: 558
Timestamp: 1611249111, Global Edits/Min: 559
Timestamp: 1611249114, Global Edits/Min: 560
Timestamp: 1611249110, Global Edits/Min: 561
Timestamp: 1611249111, Global Edits/Min: 562
Timestamp: 1611249114, Global Edits/Min: 563
Timestamp: 1611249114, Global Edits/Min: 564
Timestamp: 1611249112, Global Edits/Min: 565
Timestamp: 1611249113, Global Edits/Min: 566
Timestamp: 1611249112, Global Edits/Min: 567
Timestamp: 1611249112, Global Edits/Min: 568
Timestamp: 1611249113, Global Edits/Min: 569
Timestamp: 1611249112, Global Edits/Min: 570
Timestamp: 1611249111, Global Edits/Min: 571
Timestamp: 1611249113, Global Edits/Min: 572
Timestamp: 1611249112, Global Edits/Min: 573
Timestamp: 1611249113, Global Edits/Min: 574
Timestamp: 1611249115, Global Edits/Min: 575
Timestamp: 1611249115, Global Edits/Min: 576
Timestamp: 1611249110, Global Edits/Min: 577
Timestamp: 1611249115, Global Edits/Min: 578
Timestamp: 1611249114, Global Edits/Min: 579
Timestamp: 1611249111, Global Edits/Min: 580
Timestamp: 1611249115, Global Edits/Min: 581
Timestamp: 1611249113, Global Edits/Min: 582
Timestamp: 1611249113, Global Edits/Min: 583
Timestamp: 1611249113, Global Edits/Min: 584
Timestamp: 1611249114, Global Edits/Min: 585
Timestamp: 1611249114, Global Edits/Min: 586
Timestamp: 1611249110, Global Edits/Min: 587
Timestamp: 1611249111, Global Edits/Min: 588
Timestamp: 1611249109, Global Edits/Min: 589
Timestamp: 1611249115, Global Edits/Min: 590
Timestamp: 1611249114, Global Edits/Min: 591
Timestamp: 1611249113, Global Edits/Min: 592
Timestamp: 1611249115, Global Edits/Min: 593
Timestamp: 1611249113, Global Edits/Min: 594
Timestamp: 1611249114, Global Edits/Min: 595
Timestamp: 1611249115, Global Edits/Min: 596
Timestamp: 1611249113, Global Edits/Min: 597
Timestamp: 1611249115, Global Edits/Min: 598
Timestamp: 1611249115, Global Edits/Min: 599
Timestamp: 1611249113, Global Edits/Min: 600
Timestamp: 1611249116, Global Edits/Min: 601
Timestamp: 1611249114, Global Edits/Min: 602
Timestamp: 1611249113, Global Edits/Min: 603
Timestamp: 1611249114, Global Edits/Min: 604
Timestamp: 1611249113, Global Edits/Min: 605
Timestamp: 1611249117, Global Edits/Min: 606
Timestamp: 1611249114, Global Edits/Min: 607
Timestamp: 1611249116, Global Edits/Min: 608
Timestamp: 1611249116, Global Edits/Min: 609
Timestamp: 1611249113, Global Edits/Min: 610
Timestamp: 1611249116, Global Edits/Min: 611
Timestamp: 1611249115, Global Edits/Min: 612
Timestamp: 1611249110, Global Edits/Min: 613
Timestamp: 1611249117, Global Edits/Min: 614
Timestamp: 1611249117, Global Edits/Min: 615
Timestamp: 1611249116, Global Edits/Min: 616
Timestamp: 1611249114, Global Edits/Min: 617
Timestamp: 1611249116, Global Edits/Min: 618
Timestamp: 1611249115, Global Edits/Min: 619
Timestamp: 1611249117, Global Edits/Min: 620
Timestamp: 1611249117, Global Edits/Min: 621
Timestamp: 1611249110, Global Edits/Min: 622
Timestamp: 1611249117, Global Edits/Min: 623
Timestamp: 1611249116, Global Edits/Min: 624
Timestamp: 1611249116, Global Edits/Min: 625
Timestamp: 1611249116, Global Edits/Min: 626
Timestamp: 1611249114, Global Edits/Min: 627
Timestamp: 1611249117, Global Edits/Min: 628
Timestamp: 1611249118, Global Edits/Min: 629
Timestamp: 1611249117, Global Edits/Min: 630
Timestamp: 1611249118, Global Edits/Min: 631
Timestamp: 1611249116, Global Edits/Min: 632
Timestamp: 1611249116, Global Edits/Min: 633
Timestamp: 1611249114, Global Edits/Min: 634
Timestamp: 1611249117, Global Edits/Min: 635
Timestamp: 1611249117, Global Edits/Min: 636
Timestamp: 1611249117, Global Edits/Min: 637
Timestamp: 1611249115, Global Edits/Min: 638
Timestamp: 1611249117, Global Edits/Min: 639
Timestamp: 1611249116, Global Edits/Min: 640
Timestamp: 1611249118, Global Edits/Min: 641
Timestamp: 1611249119, Global Edits/Min: 642
Timestamp: 1611249116, Global Edits/Min: 643
Timestamp: 1611249105, Global Edits/Min: 644
Timestamp: 1611249116, Global Edits/Min: 645
Timestamp: 1611249119, Global Edits/Min: 646
Timestamp: 1611249116, Global Edits/Min: 647
Timestamp: 1611249116, Global Edits/Min: 648
Timestamp: 1611249119, Global Edits/Min: 649
Timestamp: 1611249118, Global Edits/Min: 650
Timestamp: 1611249117, Global Edits/Min: 651
Timestamp: 1611249116, Global Edits/Min: 652
Timestamp: 1611249120, Global Edits/Min: 653
Timestamp: 1611249119, Global Edits/Min: 654
Timestamp: 1611249116, Global Edits/Min: 655
Timestamp: 1611249118, Global Edits/Min: 656
Timestamp: 1611249105, Global Edits/Min: 657
Timestamp: 1611249117, Global Edits/Min: 658
Timestamp: 1611249117, Global Edits/Min: 659
Timestamp: 1611249118, Global Edits/Min: 660
Timestamp: 1611249119, Global Edits/Min: 661
Timestamp: 1611249116, Global Edits/Min: 662
Timestamp: 1611249115, Global Edits/Min: 663
Timestamp: 1611249119, Global Edits/Min: 664
Timestamp: 1611249118, Global Edits/Min: 665
Timestamp: 1611249120, Global Edits/Min: 666
Timestamp: 1611249119, Global Edits/Min: 667
Timestamp: 1611249119, Global Edits/Min: 668
Timestamp: 1611249116, Global Edits/Min: 669
Timestamp: 1611249121, Global Edits/Min: 670
Timestamp: 1611249119, Global Edits/Min: 671
Timestamp: 1611249119, Global Edits/Min: 672
Timestamp: 1611249119, Global Edits/Min: 673
Timestamp: 1611249117, Global Edits/Min: 674
Timestamp: 1611249117, Global Edits/Min: 675
Timestamp: 1611249118, Global Edits/Min: 676
Timestamp: 1611249118, Global Edits/Min: 677
Timestamp: 1611249117, Global Edits/Min: 678
Timestamp: 1611249117, Global Edits/Min: 679
Timestamp: 1611249114, Global Edits/Min: 680
Timestamp: 1611249120, Global Edits/Min: 681
Timestamp: 1611249119, Global Edits/Min: 682
Timestamp: 1611249119, Global Edits/Min: 683
Timestamp: 1611249119, Global Edits/Min: 684
Timestamp: 1611249117, Global Edits/Min: 685
Timestamp: 1611249117, Global Edits/Min: 686
Timestamp: 1611249119, Global Edits/Min: 687
Timestamp: 1611249117, Global Edits/Min: 688
Timestamp: 1611249121, Global Edits/Min: 689
Timestamp: 1611249117, Global Edits/Min: 690
Timestamp: 1611249117, Global Edits/Min: 691
Timestamp: 1611249119, Global Edits/Min: 692
Timestamp: 1611249119, Global Edits/Min: 693
Timestamp: 1611249119, Global Edits/Min: 694
Timestamp: 1611249117, Global Edits/Min: 695
Timestamp: 1611249120, Global Edits/Min: 696
Timestamp: 1611249121, Global Edits/Min: 697
Timestamp: 1611249121, Global Edits/Min: 698
Timestamp: 1611249118, Global Edits/Min: 699
Timestamp: 1611249121, Global Edits/Min: 700
Timestamp: 1611249119, Global Edits/Min: 701
Timestamp: 1611249117, Global Edits/Min: 702
Timestamp: 1611249121, Global Edits/Min: 703
Timestamp: 1611249116, Global Edits/Min: 704
Timestamp: 1611249117, Global Edits/Min: 705
Timestamp: 1611249121, Global Edits/Min: 706
Timestamp: 1611249121, Global Edits/Min: 707
Timestamp: 1611249121, Global Edits/Min: 708
Timestamp: 1611249122, Global Edits/Min: 709
Timestamp: 1611249121, Global Edits/Min: 710
Timestamp: 1611249119, Global Edits/Min: 711
Timestamp: 1611249118, Global Edits/Min: 712
Timestamp: 1611249119, Global Edits/Min: 713
Timestamp: 1611249122, Global Edits/Min: 714
Timestamp: 1611249122, Global Edits/Min: 715
Timestamp: 1611249119, Global Edits/Min: 716
Timestamp: 1611249120, Global Edits/Min: 717
Timestamp: 1611249121, Global Edits/Min: 718
Timestamp: 1611249118, Global Edits/Min: 719
Timestamp: 1611249121, Global Edits/Min: 720
Timestamp: 1611249118, Global Edits/Min: 721
Timestamp: 1611249119, Global Edits/Min: 722
Timestamp: 1611249121, Global Edits/Min: 723
Timestamp: 1611249119, Global Edits/Min: 724
Timestamp: 1611249123, Global Edits/Min: 725
Timestamp: 1611249121, Global Edits/Min: 726
Timestamp: 1611249123, Global Edits/Min: 727
Timestamp: 1611249118, Global Edits/Min: 728
Timestamp: 1611249122, Global Edits/Min: 729
Timestamp: 1611249120, Global Edits/Min: 730
Timestamp: 1611249120, Global Edits/Min: 731
Timestamp: 1611249121, Global Edits/Min: 732
Timestamp: 1611249124, Global Edits/Min: 733
Timestamp: 1611249123, Global Edits/Min: 734
Timestamp: 1611249120, Global Edits/Min: 735
Timestamp: 1611249122, Global Edits/Min: 736
Timestamp: 1611249122, Global Edits/Min: 737
Timestamp: 1611249121, Global Edits/Min: 738
Timestamp: 1611249120, Global Edits/Min: 739
Timestamp: 1611249121, Global Edits/Min: 740
Timestamp: 1611249121, Global Edits/Min: 741
Timestamp: 1611249122, Global Edits/Min: 742
Timestamp: 1611249122, Global Edits/Min: 743
Timestamp: 1611249123, Global Edits/Min: 744
Timestamp: 1611249123, Global Edits/Min: 745
Timestamp: 1611249123, Global Edits/Min: 746
Timestamp: 1611249122, Global Edits/Min: 747
Timestamp: 1611249122, Global Edits/Min: 748
Timestamp: 1611249122, Global Edits/Min: 749
Timestamp: 1611249122, Global Edits/Min: 750
Timestamp: 1611249124, Global Edits/Min: 751
Timestamp: 1611249123, Global Edits/Min: 752
Timestamp: 1611249122, Global Edits/Min: 753
Timestamp: 1611249123, Global Edits/Min: 754
Timestamp: 1611249121, Global Edits/Min: 755
Timestamp: 1611249124, Global Edits/Min: 756
Timestamp: 1611249124, Global Edits/Min: 757
Timestamp: 1611249121, Global Edits/Min: 758
Timestamp: 1611249121, Global Edits/Min: 759
Timestamp: 1611249122, Global Edits/Min: 760
Timestamp: 1611249124, Global Edits/Min: 761
Timestamp: 1611249121, Global Edits/Min: 762
Timestamp: 1611249123, Global Edits/Min: 763
Timestamp: 1611249123, Global Edits/Min: 764
Timestamp: 1611249125, Global Edits/Min: 765
Timestamp: 1611249122, Global Edits/Min: 766
Timestamp: 1611249125, Global Edits/Min: 767
Timestamp: 1611249124, Global Edits/Min: 768
Timestamp: 1611249125, Global Edits/Min: 769
Timestamp: 1611249125, Global Edits/Min: 770
Timestamp: 1611249119, Global Edits/Min: 771
Timestamp: 1611249125, Global Edits/Min: 772
Timestamp: 1611249124, Global Edits/Min: 773
Timestamp: 1611249123, Global Edits/Min: 774
Timestamp: 1611249125, Global Edits/Min: 775
Timestamp: 1611249123, Global Edits/Min: 776
Timestamp: 1611249126, Global Edits/Min: 777
Timestamp: 1611249126, Global Edits/Min: 778
Timestamp: 1611249125, Global Edits/Min: 779
Timestamp: 1611249125, Global Edits/Min: 780
Timestamp: 1611249125, Global Edits/Min: 781
Timestamp: 1611249126, Global Edits/Min: 782
Timestamp: 1611249127, Global Edits/Min: 783
Timestamp: 1611249123, Global Edits/Min: 784
Timestamp: 1611249125, Global Edits/Min: 785
Timestamp: 1611249126, Global Edits/Min: 786
Timestamp: 1611249121, Global Edits/Min: 787
Timestamp: 1611249126, Global Edits/Min: 788
Timestamp: 1611249127, Global Edits/Min: 789
Timestamp: 1611249125, Global Edits/Min: 790
Timestamp: 1611249126, Global Edits/Min: 791
Timestamp: 1611249122, Global Edits/Min: 792
Timestamp: 1611249126, Global Edits/Min: 793
Timestamp: 1611249126, Global Edits/Min: 794
Timestamp: 1611249127, Global Edits/Min: 795
Timestamp: 1611249127, Global Edits/Min: 796
Timestamp: 1611249127, Global Edits/Min: 797
Timestamp: 1611249126, Global Edits/Min: 798
Timestamp: 1611249126, Global Edits/Min: 799
Timestamp: 1611249127, Global Edits/Min: 800
Timestamp: 1611249127, Global Edits/Min: 801
Timestamp: 1611249126, Global Edits/Min: 802
Timestamp: 1611249125, Global Edits/Min: 803
Timestamp: 1611249126, Global Edits/Min: 804
Timestamp: 1611249125, Global Edits/Min: 805
Timestamp: 1611249127, Global Edits/Min: 806
Timestamp: 1611249125, Global Edits/Min: 807
Timestamp: 1611249128, Global Edits/Min: 808
Timestamp: 1611249125, Global Edits/Min: 809
Timestamp: 1611249127, Global Edits/Min: 810
Timestamp: 1611249128, Global Edits/Min: 811
Timestamp: 1611249127, Global Edits/Min: 812
Timestamp: 1611249125, Global Edits/Min: 813
Timestamp: 1611249128, Global Edits/Min: 814
Timestamp: 1611249123, Global Edits/Min: 815
Timestamp: 1611249126, Global Edits/Min: 816
Timestamp: 1611249125, Global Edits/Min: 817
Timestamp: 1611249123, Global Edits/Min: 818
Timestamp: 1611249129, Global Edits/Min: 819
Timestamp: 1611249128, Global Edits/Min: 820
Timestamp: 1611249129, Global Edits/Min: 821
Timestamp: 1611249127, Global Edits/Min: 822
Timestamp: 1611249129, Global Edits/Min: 823
Timestamp: 1611249128, Global Edits/Min: 824
Timestamp: 1611249129, Global Edits/Min: 825
Timestamp: 1611249129, Global Edits/Min: 826
Timestamp: 1611249129, Global Edits/Min: 827
Timestamp: 1611249126, Global Edits/Min: 828
Timestamp: 1611249129, Global Edits/Min: 829
Timestamp: 1611249129, Global Edits/Min: 830
Timestamp: 1611249130, Global Edits/Min: 831
Timestamp: 1611249081, Global Edits/Min: 832
Timestamp: 1611249126, Global Edits/Min: 833
Timestamp: 1611249130, Global Edits/Min: 834
Timestamp: 1611249081, Global Edits/Min: 835
Timestamp: 1611249130, Global Edits/Min: 836
Timestamp: 1611249129, Global Edits/Min: 837
Timestamp: 1611249128, Global Edits/Min: 838
Timestamp: 1611249129, Global Edits/Min: 839
Timestamp: 1611249127, Global Edits/Min: 840
Timestamp: 1611249127, Global Edits/Min: 841
Timestamp: 1611249129, Global Edits/Min: 842
Timestamp: 1611249131, Global Edits/Min: 843
Timestamp: 1611249130, Global Edits/Min: 844
Timestamp: 1611249131, Global Edits/Min: 845
Timestamp: 1611249127, Global Edits/Min: 846
Timestamp: 1611249131, Global Edits/Min: 847
Timestamp: 1611249081, Global Edits/Min: 848
Timestamp: 1611249128, Global Edits/Min: 849
Timestamp: 1611249127, Global Edits/Min: 850
Timestamp: 1611249127, Global Edits/Min: 851
Timestamp: 1611249130, Global Edits/Min: 852
Timestamp: 1611249131, Global Edits/Min: 853
Timestamp: 1611249131, Global Edits/Min: 854
Timestamp: 1611249128, Global Edits/Min: 855
Timestamp: 1611249129, Global Edits/Min: 856
Timestamp: 1611249131, Global Edits/Min: 857
Timestamp: 1611249130, Global Edits/Min: 858
Timestamp: 1611249130, Global Edits/Min: 859
Timestamp: 1611249131, Global Edits/Min: 860
Timestamp: 1611249130, Global Edits/Min: 861
Timestamp: 1611249126, Global Edits/Min: 862
Timestamp: 1611249130, Global Edits/Min: 863
Timestamp: 1611249131, Global Edits/Min: 864
Timestamp: 1611249127, Global Edits/Min: 865
Timestamp: 1611249131, Global Edits/Min: 866
Timestamp: 1611249131, Global Edits/Min: 867
Timestamp: 1611249129, Global Edits/Min: 868
Timestamp: 1611249130, Global Edits/Min: 869
Timestamp: 1611249129, Global Edits/Min: 870
Timestamp: 1611249132, Global Edits/Min: 871
Timestamp: 1611249132, Global Edits/Min: 872
Timestamp: 1611249132, Global Edits/Min: 873
Timestamp: 1611249130, Global Edits/Min: 874
Timestamp: 1611249128, Global Edits/Min: 875
Timestamp: 1611249131, Global Edits/Min: 876
Timestamp: 1611249132, Global Edits/Min: 877
Timestamp: 1611249132, Global Edits/Min: 878
Timestamp: 1611249128, Global Edits/Min: 879
Timestamp: 1611249132, Global Edits/Min: 880
Timestamp: 1611249128, Global Edits/Min: 881
Timestamp: 1611249132, Global Edits/Min: 882
Timestamp: 1611249132, Global Edits/Min: 883
Timestamp: 1611249127, Global Edits/Min: 884
Timestamp: 1611249132, Global Edits/Min: 885
Timestamp: 1611249132, Global Edits/Min: 886
Timestamp: 1611249131, Global Edits/Min: 887
Timestamp: 1611249132, Global Edits/Min: 888
Timestamp: 1611249133, Global Edits/Min: 889
Timestamp: 1611249130, Global Edits/Min: 890
Timestamp: 1611249132, Global Edits/Min: 891
Timestamp: 1611249132, Global Edits/Min: 892
Timestamp: 1611249130, Global Edits/Min: 893
Timestamp: 1611249129, Global Edits/Min: 894
Timestamp: 1611249128, Global Edits/Min: 895
Timestamp: 1611249129, Global Edits/Min: 896
Timestamp: 1611249129, Global Edits/Min: 897
Timestamp: 1611249133, Global Edits/Min: 898
Timestamp: 1611249131, Global Edits/Min: 899
Timestamp: 1611249132, Global Edits/Min: 900
Timestamp: 1611249133, Global Edits/Min: 901
Timestamp: 1611249128, Global Edits/Min: 902
Timestamp: 1611249131, Global Edits/Min: 903
Timestamp: 1611249133, Global Edits/Min: 904
Timestamp: 1611249134, Global Edits/Min: 905
Timestamp: 1611249133, Global Edits/Min: 906
Timestamp: 1611249132, Global Edits/Min: 907
Timestamp: 1611249133, Global Edits/Min: 908
Timestamp: 1611249133, Global Edits/Min: 909
Timestamp: 1611249125, Global Edits/Min: 910
Timestamp: 1611249133, Global Edits/Min: 911
Timestamp: 1611249133, Global Edits/Min: 912
Timestamp: 1611249134, Global Edits/Min: 913
Timestamp: 1611249133, Global Edits/Min: 914
Timestamp: 1611249131, Global Edits/Min: 915
Timestamp: 1611249129, Global Edits/Min: 916
Timestamp: 1611249132, Global Edits/Min: 917
Timestamp: 1611249130, Global Edits/Min: 918
Timestamp: 1611249133, Global Edits/Min: 919
Timestamp: 1611249134, Global Edits/Min: 920
Timestamp: 1611249133, Global Edits/Min: 921
Timestamp: 1611249134, Global Edits/Min: 922
Timestamp: 1611249133, Global Edits/Min: 923
Timestamp: 1611249131, Global Edits/Min: 924
Timestamp: 1611249134, Global Edits/Min: 925
Timestamp: 1611249130, Global Edits/Min: 926
Timestamp: 1611249130, Global Edits/Min: 927
Timestamp: 1611249130, Global Edits/Min: 928
Timestamp: 1611249131, Global Edits/Min: 929
Timestamp: 1611249133, Global Edits/Min: 930
Timestamp: 1611249135, Global Edits/Min: 930
Timestamp: 1611249133, Global Edits/Min: 931
Timestamp: 1611249134, Global Edits/Min: 932
Timestamp: 1611249133, Global Edits/Min: 933
Timestamp: 1611249131, Global Edits/Min: 934
Timestamp: 1611249132, Global Edits/Min: 935
Timestamp: 1611249135, Global Edits/Min: 936
Timestamp: 1611249133, Global Edits/Min: 937
Timestamp: 1611249133, Global Edits/Min: 938
Timestamp: 1611249134, Global Edits/Min: 939
Timestamp: 1611249131, Global Edits/Min: 940
Timestamp: 1611249129, Global Edits/Min: 941
Timestamp: 1611249128, Global Edits/Min: 942
Timestamp: 1611249130, Global Edits/Min: 943
Timestamp: 1611249134, Global Edits/Min: 944
Timestamp: 1611249135, Global Edits/Min: 945
Timestamp: 1611249130, Global Edits/Min: 946
Timestamp: 1611249134, Global Edits/Min: 947
Timestamp: 1611249135, Global Edits/Min: 948
Timestamp: 1611249135, Global Edits/Min: 949
Timestamp: 1611249136, Global Edits/Min: 950
Timestamp: 1611249135, Global Edits/Min: 951
Timestamp: 1611249135, Global Edits/Min: 952
Timestamp: 1611249133, Global Edits/Min: 953
Timestamp: 1611249135, Global Edits/Min: 954
Timestamp: 1611249134, Global Edits/Min: 955
Timestamp: 1611249134, Global Edits/Min: 956
Timestamp: 1611249135, Global Edits/Min: 957
Timestamp: 1611249135, Global Edits/Min: 958
Timestamp: 1611249134, Global Edits/Min: 959
Timestamp: 1611249135, Global Edits/Min: 960
Timestamp: 1611249136, Global Edits/Min: 961
Timestamp: 1611249136, Global Edits/Min: 962
Timestamp: 1611249134, Global Edits/Min: 963
Timestamp: 1611249135, Global Edits/Min: 964
Timestamp: 1611249127, Global Edits/Min: 965
Timestamp: 1611249136, Global Edits/Min: 966
Timestamp: 1611249136, Global Edits/Min: 967
Timestamp: 1611249134, Global Edits/Min: 968
Timestamp: 1611249134, Global Edits/Min: 969
Timestamp: 1611249136, Global Edits/Min: 970
Timestamp: 1611249135, Global Edits/Min: 971
Timestamp: 1611249133, Global Edits/Min: 972
